VHDL/multiplication/simulation/qsim/multiplication.msim.vcd
$comment
	File created using the following command:
		vcd file multiplication.msim.vcd -direction
$end
$date
	Fri Jan 22 01:10:43 2021
$end
$version
	ModelSim Version 10.1d
$end
$timescale
	1ps
$end
$scope module multiplication_vlg_vec_tst $end
$var reg 4 ! a [3:0] $end
$var reg 4 " b [3:0] $end
$var reg 4 # c [3:0] $end
$var reg 4 $ d [3:0] $end
$var wire 1 % x [7] $end
$var wire 1 & x [6] $end
$var wire 1 ' x [5] $end
$var wire 1 ( x [4] $end
$var wire 1 ) x [3] $end
$var wire 1 * x [2] $end
$var wire 1 + x [1] $end
$var wire 1 , x [0] $end
$var wire 1 - y [7] $end
$var wire 1 . y [6] $end
$var wire 1 / y [5] $end
$var wire 1 0 y [4] $end
$var wire 1 1 y [3] $end
$var wire 1 2 y [2] $end
$var wire 1 3 y [1] $end
$var wire 1 4 y [0] $end
$var wire 1 5 sampler $end
$scope module i1 $end
$var wire 1 6 gnd $end
$var wire 1 7 vcc $end
$var wire 1 8 unknown $end
$var tri1 1 9 devclrn $end
$var tri1 1 : devpor $end
$var tri1 1 ; devoe $end
$var wire 1 < Mult0|auto_generated|cs2a[1]~0_combout $end
$var wire 1 = b[2]~input_o $end
$var wire 1 > x[0]~output_o $end
$var wire 1 ? x[1]~output_o $end
$var wire 1 @ x[2]~output_o $end
$var wire 1 A x[3]~output_o $end
$var wire 1 B x[4]~output_o $end
$var wire 1 C x[5]~output_o $end
$var wire 1 D x[6]~output_o $end
$var wire 1 E x[7]~output_o $end
$var wire 1 F y[0]~output_o $end
$var wire 1 G y[1]~output_o $end
$var wire 1 H y[2]~output_o $end
$var wire 1 I y[3]~output_o $end
$var wire 1 J y[4]~output_o $end
$var wire 1 K y[5]~output_o $end
$var wire 1 L y[6]~output_o $end
$var wire 1 M y[7]~output_o $end
$var wire 1 N b[1]~input_o $end
$var wire 1 O b[0]~input_o $end
$var wire 1 P a[0]~input_o $end
$var wire 1 Q Mult0|auto_generated|op_3~0_combout $end
$var wire 1 R Mult0|auto_generated|op_3~1 $end
$var wire 1 S Mult0|auto_generated|op_3~2_combout $end
$var wire 1 T b[3]~input_o $end
$var wire 1 U Mult0|auto_generated|op_1~0_combout $end
$var wire 1 V Mult0|auto_generated|op_3~3 $end
$var wire 1 W Mult0|auto_generated|op_3~4_combout $end
$var wire 1 X a[1]~input_o $end
$var wire 1 Y Mult0|auto_generated|op_1~1 $end
$var wire 1 Z Mult0|auto_generated|op_1~2_combout $end
$var wire 1 [ Mult0|auto_generated|op_3~5 $end
$var wire 1 \ Mult0|auto_generated|op_3~6_combout $end
$var wire 1 ] Mult0|auto_generated|op_1~3 $end
$var wire 1 ^ Mult0|auto_generated|op_1~4_combout $end
$var wire 1 _ Mult0|auto_generated|op_3~7 $end
$var wire 1 ` Mult0|auto_generated|op_3~8_combout $end
$var wire 1 a a[3]~input_o $end
$var wire 1 b a[2]~input_o $end
$var wire 1 c Mult0|auto_generated|op_1~5 $end
$var wire 1 d Mult0|auto_generated|op_1~6_combout $end
$var wire 1 e Mult0|auto_generated|op_3~9 $end
$var wire 1 f Mult0|auto_generated|op_3~10_combout $end
$var wire 1 g Mult0|auto_generated|op_1~7 $end
$var wire 1 h Mult0|auto_generated|op_1~8_combout $end
$var wire 1 i Mult0|auto_generated|op_3~11 $end
$var wire 1 j Mult0|auto_generated|op_3~12_combout $end
$var wire 1 k Mult0|auto_generated|op_1~9 $end
$var wire 1 l Mult0|auto_generated|op_1~10_combout $end
$var wire 1 m Mult0|auto_generated|op_3~13 $end
$var wire 1 n Mult0|auto_generated|op_3~14_combout $end
$var wire 1 o d[1]~input_o $end
$var wire 1 p c[0]~input_o $end
$var wire 1 q Mult1|auto_generated|add6_result[0]~0_combout $end
$var wire 1 r c[1]~input_o $end
$var wire 1 s Mult1|auto_generated|add6_result[0]~1 $end
$var wire 1 t Mult1|auto_generated|add6_result[1]~2_combout $end
$var wire 1 u d[3]~input_o $end
$var wire 1 v d[2]~input_o $end
$var wire 1 w Mult1|auto_generated|cs3a[1]~0_combout $end
$var wire 1 x d[0]~input_o $end
$var wire 1 y Mult1|auto_generated|add10_result[0]~0_combout $end
$var wire 1 z Mult1|auto_generated|add6_result[1]~3 $end
$var wire 1 { Mult1|auto_generated|add6_result[2]~4_combout $end
$var wire 1 | Mult1|auto_generated|add10_result[0]~1 $end
$var wire 1 } Mult1|auto_generated|add10_result[1]~2_combout $end
$var wire 1 ~ Mult1|auto_generated|add6_result[2]~5 $end
$var wire 1 !! Mult1|auto_generated|add6_result[3]~6_combout $end
$var wire 1 "! c[2]~input_o $end
$var wire 1 #! c[3]~input_o $end
$var wire 1 $! Mult1|auto_generated|add10_result[1]~3 $end
$var wire 1 %! Mult1|auto_generated|add10_result[2]~4_combout $end
$var wire 1 &! Mult1|auto_generated|add6_result[3]~7 $end
$var wire 1 '! Mult1|auto_generated|add6_result[4]~8_combout $end
$var wire 1 (! Mult1|auto_generated|add10_result[2]~5 $end
$var wire 1 )! Mult1|auto_generated|add10_result[3]~6_combout $end
$var wire 1 *! Mult1|auto_generated|add6_result[4]~9 $end
$var wire 1 +! Mult1|auto_generated|add6_result[5]~10_combout $end
$var wire 1 ,! Mult1|auto_generated|add10_result[3]~7 $end
$var wire 1 -! Mult1|auto_generated|add10_result[4]~8_combout $end
$var wire 1 .! Mult1|auto_generated|add6_result[5]~11 $end
$var wire 1 /! Mult1|auto_generated|add6_result[6]~12_combout $end
$var wire 1 0! Mult1|auto_generated|add6_result[6]~13 $end
$var wire 1 1! Mult1|auto_generated|add6_result[7]~14_combout $end
$var wire 1 2! Mult0|auto_generated|le5a [4] $end
$var wire 1 3! Mult0|auto_generated|le5a [3] $end
$var wire 1 4! Mult0|auto_generated|le5a [2] $end
$var wire 1 5! Mult0|auto_generated|le5a [1] $end
$var wire 1 6! Mult0|auto_generated|le5a [0] $end
$var wire 1 7! Mult0|auto_generated|le4a [5] $end
$var wire 1 8! Mult0|auto_generated|le4a [4] $end
$var wire 1 9! Mult0|auto_generated|le4a [3] $end
$var wire 1 :! Mult0|auto_generated|le4a [2] $end
$var wire 1 ;! Mult0|auto_generated|le4a [1] $end
$var wire 1 <! Mult0|auto_generated|le4a [0] $end
$var wire 1 =! Mult0|auto_generated|le3a [5] $end
$var wire 1 >! Mult0|auto_generated|le3a [4] $end
$var wire 1 ?! Mult0|auto_generated|le3a [3] $end
$var wire 1 @! Mult0|auto_generated|le3a [2] $end
$var wire 1 A! Mult0|auto_generated|le3a [1] $end
$var wire 1 B! Mult0|auto_generated|le3a [0] $end
$var wire 1 C! Mult1|auto_generated|le5a [4] $end
$var wire 1 D! Mult1|auto_generated|le5a [3] $end
$var wire 1 E! Mult1|auto_generated|le5a [2] $end
$var wire 1 F! Mult1|auto_generated|le5a [1] $end
$var wire 1 G! Mult1|auto_generated|le5a [0] $end
$var wire 1 H! Mult1|auto_generated|le4a [4] $end
$var wire 1 I! Mult1|auto_generated|le4a [3] $end
$var wire 1 J! Mult1|auto_generated|le4a [2] $end
$var wire 1 K! Mult1|auto_generated|le4a [1] $end
$var wire 1 L! Mult1|auto_generated|le4a [0] $end
$var wire 1 M! Mult1|auto_generated|le2a [4] $end
$var wire 1 N! Mult1|auto_generated|le2a [3] $end
$var wire 1 O! Mult1|auto_generated|le2a [2] $end
$var wire 1 P! Mult1|auto_generated|le2a [1] $end
$var wire 1 Q! Mult1|auto_generated|le2a [0] $end
$upscope $end
$upscope $end
$enddefinitions $end
#0
$dumpvars
b0 !
b0 "
b1111 #
b1110 $
1L!
1K!
1J!
1I!
1H!
1Q!
1P!
1O!
1N!
1M!
0,
0+
0*
0)
0(
0'
0&
0%
04
13
02
01
00
0/
0.
0-
x5
06
17
x8
19
1:
1;
0<
0=
0>
0?
0@
0A
0B
0C
0D
0E
0F
1G
0H
0I
0J
0K
0L
0M
0N
0O
0P
0Q
0R
0S
0T
0U
1V
0W
0X
0Y
0Z
0[
0\
1]
0^
1_
0`
0a
0b
0c
0d
0e
0f
1g
0h
1i
0j
0k
1l
0m
0n
1o
1p
0q
1r
1s
1t
1u
1v
0w
0x
1y
1z
0{
0|
0}
1~
0!!
1"!
1#!
1$!
0%!
0&!
0'!
1(!
0)!
1*!
0+!
0,!
1-!
0.!
0/!
10!
01!
06!
05!
04!
03!
z2!
0<!
0;!
0:!
09!
08!
07!
0B!
0A!
0@!
0?!
0>!
0=!
1G!
0F!
0E!
0D!
0C!
$end
#940
b1110 #
0p
05
1F!
0z
0t
0G
03
1{
1H
12
#2705
b1111 $
1x
15
0F!
1z
1t
1G
13
0{
0H
02
#6015
b1010 #
0"!
05
1E!
1|
0y
1}
0~
1{
1H
12
#9679
b111 $
0u
15
0N!
0P!
0|
1y
0Q!
0I!
0K!
0}
1~
0L!
0{
1.!
1&!
0~
0H
02
1+!
1!!
1{
00!
0*!
1K
1I
1H
1/
11
12
1/!
1'!
0!!
1L
1J
0I
1.
10
01
11!
0+!
1M
0K
1-
0/
#10000
b1 !
b1 "
1O
1P
05
1B!
1Q
1>
1,
#20000
b11 !
b11 "
b10 !
b10 "
0O
1N
0P
1X
15
1>!
1A!
1?!
1=!
1R
1<
0Q
1^
0V
1Z
1;!
0>
0,
1n
1j
1f
0_
1E
1D
1C
1%
1&
1'
1`
1W
1e
1B
1@
1(
1*
0`
0i
0B
0(
0f
1m
0C
0'
0j
0D
0&
0n
0E
0%
#20236
b1000 #
0r
05
1F!
0O!
0z
0J!
0t
1~
0G
03
0{
0'!
0H
0J
02
00
1!!
1I
11
#25550
b0 #
0#!
15
1C!
0M!
1D!
0(!
1%!
0H!
1}
1,!
1)!
10!
0&!
1'!
0/!
0!!
0-!
1*!
1J
0L
0I
10
0.
01
1+!
01!
0'!
00!
0.!
1K
0M
0J
1/
0-
00
1/!
0+!
10!
1L
0K
1.
0/
11!
0/!
1M
0L
1-
0.
01!
0M
0-
#26515
b101 $
0o
05
0C!
0E!
1w
0F!
0s
0G!
0D!
1q
1(!
0%!
0y
1z
0}
1F
14
0q
0,!
0)!
0*!
0~
1&!
0F
04
1'!
1!!
1-!
1.!
1J
1I
10
11
0!!
0'!
0I
0J
01
00
#28213
b1 $
0v
15
0w
#30000
b11 !
b11 "
1O
1P
05
0A!
0B!
1@!
1<!
1V
0R
1U
1[
1S
1Q
0W
1?
1>
0@
1+
1,
0*
0S
1\
0?
1A
0+
1)
#32704
b0 $
0x
15
#40000
b111 !
b111 "
b101 !
b101 "
b100 !
b100 "
0O
0N
1=
0P
0X
1b
05
0>!
0?!
0@!
0=!
0<!
0;!
1:!
0Q
0Z
0U
0m
1i
0[
0>
0,
1n
1j
1f
1W
0\
1_
1E
1D
1C
1@
0A
1%
1&
1'
1*
0)
0W
0n
0j
0e
0@
0E
0D
0*
0%
0&
1`
1B
1(
0f
0C
0'
#50000
b101 !
b101 "
1O
1P
15
1B!
1@!
1<!
1U
1Q
1W
1[
1>
1@
1,
1*
0W
0@
0*
1\
1A
1)
#60000
b111 !
b111 "
b110 !
b110 "
0O
1N
0P
1X
05
1>!
1A!
0@!
14!
1=!
17!
1R
18!
15!
0<
1;!
0Q
1c
0^
0V
1k
0l
0:!
1d
0_
0>
0,
1n
1j
1f
0\
0g
0d
1l
0c
1^
0i
1E
1D
1C
0A
1%
1&
1'
0)
1W
0n
0f
1h
1i
1g
1d
1e
1m
1@
0E
0C
1*
0%
0'
1f
1n
0`
0j
0h
0i
1C
1E
0B
0D
1'
1%
0(
0&
0n
0E
0%
#61849
b100 #
1"!
15
#63884
b1100 #
1#!
05
#70000
b111 !
b111 "
1O
1P
15
0A!
0B!
1?!
16!
0;!
1V
0R
1Z
1_
1S
1Q
1`
1\
0_
1?
1>
1B
1A
1+
1,
1(
1)
0W
0S
0\
0`
0@
0?
0A
0B
0*
0+
0)
0(
1`
1B
1(
#80000
b1111 !
b1111 "
b1011 !
b1011 "
b1001 !
b1001 "
b1000 !
b1000 "
0O
0N
0=
1T
0P
0X
0b
1a
05
0>!
0?!
13!
04!
0=!
06!
08!
05!
1;!
1:!
19!
0Q
0Z
0l
0k
0m
0>
0,
1n
1j
0f
0`
1\
1l
1E
1D
0C
0B
1A
1%
1&
0'
0(
1)
0\
0A
0)
0n
0E
0%
#82190
b1101 #
1p
15
#86038
b1 $
1x
05
1C!
1E!
1G!
1D!
0(!
1%!
1y
1}
1q
1,!
1)!
1F
14
1'!
1{
1!!
0-!
1J
1H
1I
10
12
11
1+!
00!
1K
1/
1/!
1L
1.
11!
1M
1-
#87736
b1111 #
1r
15
1F!
1t
1G
13
#89348
b1011 #
0"!
05
0E!
0y
0{
0H
02
#90000
b1001 !
b1001 "
1O
1P
15
1B!
1?!
16!
0;!
1Z
1_
1Q
1`
1\
0_
1>
1B
1A
1,
1(
1)
0\
0`
0A
0B
0)
0(
1`
1B
1(
#96963
b101 $
1v
05
1w
1H!
1I!
1K!
1L!
0.!
0&!
0/!
0+!
0!!
1{
1*!
0L
0K
0I
1H
0.
0/
01
12
1/!
0'!
1L
0J
1.
00
1+!
1K
1/
#100000
b1011 !
b1011 "
b1010 !
b1010 "
0O
1N
0P
1X
15
1A!
1=!
06!
1R
18!
15!
1<
1;!
0:!
0Q
0V
1m
1h
0g
0d
09!
0;!
1:!
0^
0>
0,
1n
0j
1f
0`
1\
1k
0h
1g
1d
1^
0e
1E
0D
1C
0B
1A
1%
0&
1'
0(
1)
1W
0n
1j
0f
0\
1`
0l
0k
1h
1e
1@
0E
1D
0C
0A
1B
1*
0%
1&
0'
0)
1(
0j
0`
1l
0D
0B
0&
0(
1n
1j
1f
1E
1D
1C
1%
1&
1'
0n
0E
0%
#108883
b11 #
0#!
05
0H!
0I!
0C!
0D!
10!
1(!
0%!
0}
0/!
0+!
0,!
0)!
0*!
1&!
0L
0K
0.
0/
01!
1'!
1!!
1-!
1.!
0M
1J
1I
0-
10
11
0'!
0J
00
#110000
b1011 !
b1011 "
1O
1P
15
1>!
0A!
0B!
0?!
1@!
16!
0<!
1c
0^
1V
0R
0Z
1Y
0U
1S
1Q
1`
0W
0g
0d
0[
1_
1Z
1?
1>
1B
0@
1+
1,
1(
0*
0`
0S
1\
1k
0h
0e
0B
0?
1A
0(
0+
1)
0f
1`
0l
1i
0C
1B
0'
1(
0j
1f
0m
0D
1C
0&
1'
1n
1j
1E
1D
1%
1&
0n
0E
0%
#116037
b100 $
0x
05
0F!
0G!
0t
0q
0G
0F
03
04
#120000
b1111 !
b1111 "
b1101 !
b1101 "
b1100 !
b1100 "
0O
0N
1=
0P
0X
1b
15
0>!
0@!
14!
0=!
06!
1<!
05!
1;!
0:!
0Q
0c
0Y
1U
1h
1g
1d
0_
0>
0,
1n
0j
0f
0`
1W
0\
0d
0Z
1[
0h
1E
0D
0C
0B
1@
0A
1%
0&
0'
0(
1*
0)
0W
1j
1f
1`
0@
1D
1C
1B
0*
1&
1'
1(
0f
0j
0C
0D
0'
0&
#125940
b10 #
0p
05
0L!
0{
0H
02
#130000
b1101 !
b1101 "
1O
1P
15
1B!
1?!
1@!
16!
0<!
1Z
1Y
0U
1e
0[
1Q
0`
1W
0]
0Z
1>
0B
1@
1,
0(
1*
0W
1f
1^
1_
0@
1C
0*
1'
1\
1A
1)
#140000
b1111 !
b1111 "
b1110 !
b1110 "
0O
1N
0P
1X
05
1A!
0?!
0@!
1=!
06!
07!
1R
08!
15!
0<
0;!
0Q
0V
1]
1Z
0Y
0i
0e
1l
0k
1h
1d
0>
0,
0n
1j
0f
1`
0\
0^
0Z
1m
0l
0E
1D
0C
1B
0A
0%
1&
0'
1(
0)
1W
1\
1n
1@
1A
1E
1*
1)
1%
0`
0\
0B
0A
0(
0)
#145182
b110 #
1"!
15
1J!
1'!
1J
10
#145236
b100 #
0r
05
0K!
0!!
0I
01
#147217
b1100 #
1#!
15
1H!
1I!
00!
1/!
1+!
1L
1K
1.
1/
11!
1M
1-
#150000
b1111 !
b1111 "
1O
1P
05
1>!
0A!
0B!
16!
1^
1V
0R
1S
1Q
1`
1e
1?
1>
1B
1+
1,
1(
0`
0W
0S
0B
0@
0?
0(
0*
0+
1f
1C
1'
#153213
b0 $
0v
15
0w
0H!
0I!
0J!
10!
0/!
0+!
0'!
0L
0K
0J
0.
0/
00
01!
0M
0-
#159679
b1000 $
1u
05
1P!
1y
1O!
1Q!
1K!
1J!
1L!
1{
1~
1H
12
1!!
1'!
0{
0&!
1I
1J
0H
11
10
02
0!!
1*!
0I
01
0'!
0J
00
1+!
1K
1/
#160000
b111 !
b111 "
b11 !
b11 "
b1 !
b1 "
b0 !
b0 "
0O
0N
0=
0T
0P
0X
0b
0a
15
0>!
03!
04!
0=!
06!
05!
0Q
0^
1l
0h
0e
0d
0>
0,
0n
0j
0f
1`
0m
1i
0E
0D
0C
1B
0%
0&
0'
1(
0`
1n
1j
0B
1E
1D
0(
1%
1&
0n
0j
0E
0D
0%
0&
#161515
b1010 $
1o
05
0P!
1E!
1w
1F!
1G!
0O!
0Q!
1q
1|
0y
0J!
1s
1F
14
1t
0q
1}
0~
0*!
0z
1G
0F
13
04
1{
1'!
0t
1~
1H
1J
0G
12
10
03
0+!
0{
0K
0H
0/
02
1!!
1I
11
#169371
b1011 $
1x
15
0E!
0|
1y
0}
1{
1H
12
0!!
0I
01
#170000
b1 !
b1 "
1O
1P
05
1B!
1Q
1>
1,
#172681
b1000 #
0"!
15
1J!
1E!
1*!
1|
0y
0'!
1}
0J
00
1+!
0{
1K
0H
1/
02
1!!
1I
11
#180000
b11 !
b11 "
b10 !
b10 "
0O
1N
0P
1X
05
1>!
1A!
1?!
1=!
1R
1<
0Q
1^
0V
1Z
1;!
0>
0,
1n
1j
1f
0_
1E
1D
1C
1%
1&
1'
1`
1W
1e
1B
1@
1(
1*
0`
0i
0B
0(
0f
1m
0C
0'
0j
0D
0&
0n
0E
0%
#190000
b11 !
b11 "
1O
1P
15
0A!
0B!
1@!
1<!
1V
0R
1U
1[
1S
1Q
0W
1?
1>
0@
1+
1,
0*
0S
1\
0?
1A
0+
1)
#192216
b0 #
0#!
05
1H!
1I!
1C!
1D!
00!
0.!
0(!
1%!
0$!
0}
1/!
0+!
10!
1,!
1)!
1(!
0%!
1L
0K
1.
0/
11!
0/!
1'!
0!!
0-!
0,!
0)!
1M
0L
1J
0I
1-
0.
10
01
01!
1+!
0'!
00!
1-!
0M
1K
0J
0-
1/
00
1/!
0+!
10!
1L
0K
1.
0/
11!
0/!
1M
0L
1-
0.
01!
0M
0-
#199370
b1010 $
0x
15
#200000
b111 !
b111 "
b101 !
b101 "
b100 !
b100 "
0O
0N
1=
0P
0X
1b
05
0>!
0?!
0@!
0=!
0<!
0;!
1:!
0Q
0Z
0U
0m
1i
0[
0>
0,
1n
1j
1f
1W
0\
1_
1E
1D
1C
1@
0A
1%
1&
1'
1*
0)
0W
0n
0j
0e
0@
0E
0D
0*
0%
0&
1`
1B
1(
0f
0C
0'
#207190
b1 #
1p
15
0L!
0F!
0~
1z
1{
1t
1&!
1H
1G
12
13
1!!
0{
0*!
1I
0H
11
02
1'!
1.!
1J
10
1+!
00!
1K
1/
1/!
1L
1.
11!
1M
1-
#210000
b101 !
b101 "
1O
1P
05
1B!
1@!
1<!
1U
1Q
1W
1[
1>
1@
1,
1*
0W
0@
0*
1\
1A
1)
#212736
b11 #
1r
15
0K!
0E!
0|
1y
0!!
1$!
1}
0I
01
1{
0(!
1%!
1H
12
1!!
1,!
1)!
1*!
1I
11
0'!
0-!
0.!
0J
00
#220000
b111 !
b111 "
b110 !
b110 "
0O
1N
0P
1X
05
1>!
1A!
0@!
14!
1=!
17!
1R
18!
15!
0<
1;!
0Q
1c
0^
0V
1k
0l
0:!
1d
0_
0>
0,
1n
1j
1f
0\
0g
0d
1l
0c
1^
0i
1E
1D
1C
0A
1%
1&
1'
0)
1W
0n
0f
1h
1i
1g
1d
1e
1m
1@
0E
0C
1*
0%
0'
1f
1n
0`
0j
0h
0i
1C
1E
0B
0D
1'
1%
0(
0&
0n
0E
0%
#221963
b1110 $
1v
15
1N!
1P!
0w
1M!
1O!
1Q!
1K!
1L!
0&!
1~
0!!
0{
0I
0H
01
02
1'!
1!!
1J
1I
10
11
#228515
b111 #
1"!
05
0D!
0}
0!!
0I
01
#230000
b111 !
b111 "
1O
1P
15
0A!
0B!
1?!
16!
0;!
1V
0R
1Z
1_
1S
1Q
1`
1\
0_
1?
1>
1B
1A
1+
1,
1(
1)
0W
0S
0\
0`
0@
0?
0A
0B
0*
0+
0)
0(
1`
1B
1(
#230550
b1111 #
1#!
05
0C!
1(!
0%!
0,!
0)!
0'!
1-!
0J
00
0+!
10!
0K
0/
0/!
0L
0.
01!
0M
0-
#240000
b1111 !
b1111 "
b1011 !
b1011 "
b1001 !
b1001 "
b1000 !
b1000 "
0O
0N
0=
1T
0P
0X
0b
1a
15
0>!
0?!
13!
04!
0=!
06!
08!
05!
1;!
1:!
19!
0Q
0Z
0l
0k
0m
0>
0,
1n
1j
0f
0`
1\
1l
1E
1D
0C
0B
1A
1%
1&
0'
0(
1)
0\
0A
0)
0n
0E
0%
#250000
b1110 #
b1010 #
b1001 !
b1001 "
1O
1P
0p
0"!
05
1B!
1?!
16!
0;!
1F!
1D!
1Z
1_
0z
1}
1Q
1`
1\
0t
0_
1>
1B
1A
0G
1,
1(
1)
03
0\
0`
1{
1!!
0A
0B
1H
1I
0)
0(
12
11
1`
1B
1(
#255581
b1110 #
1"!
15
0D!
0}
0!!
0I
01
#256085
b1111 $
1x
05
0F!
1z
1t
1G
13
0{
0H
02
#256750
b1100 #
0r
15
1F!
0z
0t
0G
03
1{
1H
12
#259092
b100 #
0#!
05
1C!
1D!
0(!
1%!
1}
1,!
1)!
1'!
1!!
0-!
1J
1I
10
11
1+!
00!
1K
1/
1/!
1L
1.
11!
1M
1-
#260000
b1011 !
b1011 "
b1010 !
b1010 "
0O
1N
0P
1X
15
1A!
1=!
06!
1R
18!
15!
1<
1;!
0:!
0Q
0V
1m
1h
0g
0d
09!
0;!
1:!
0^
0>
0,
1n
0j
1f
0`
1\
1k
0h
1g
1d
1^
0e
1E
0D
1C
0B
1A
1%
0&
1'
0(
1)
1W
0n
1j
0f
0\
1`
0l
0k
1h
1e
1@
0E
1D
0C
0A
1B
1*
0%
1&
0'
0)
1(
0j
0`
1l
0D
0B
0&
0(
1n
1j
1f
1E
1D
1C
1%
1&
1'
0n
0E
0%
#262358
b101 #
1p
05
0G!
0s
1q
1z
1F
14
1t
1G
13
0{
0H
02
#263080
b1 #
0"!
15
1E!
1|
0y
0$!
0}
0~
1{
1(!
0%!
1&!
1H
12
0,!
0)!
0*!
1-!
1.!
#264917
b1110 $
0x
05
0F!
1G!
1s
0t
0q
0G
0F
03
04
1t
1G
13
#267500
b11 #
1r
15
0E!
0|
1y
1$!
1}
1~
0{
0(!
1%!
0&!
0H
02
1,!
1)!
1*!
0-!
0.!
#270000
b1011 !
b1011 "
1O
1P
05
1>!
0A!
0B!
0?!
1@!
16!
0<!
1c
0^
1V
0R
0Z
1Y
0U
1S
1Q
1`
0W
0g
0d
0[
1_
1Z
1?
1>
1B
0@
1+
1,
1(
0*
0`
0S
1\
1k
0h
0e
0B
0?
1A
0(
0+
1)
0f
1`
0l
1i
0C
1B
0'
1(
0j
1f
0m
0D
1C
0&
1'
1n
1j
1E
1D
1%
1&
0n
0E
0%
#272247
b111 #
1"!
15
0D!
0}
0!!
0I
01
#272751
b1111 $
1x
05
0G!
1D!
0s
1}
1q
1F
14
0t
1!!
0G
1I
03
11
#273461
b1011 $
0v
15
0N!
0P!
1w
0M!
0O!
0Q!
0K!
0J!
0L!
0~
0!!
0'!
1{
1&!
0I
0J
1H
01
00
12
1!!
0*!
1I
11
1'!
1J
10
0+!
0K
0/
#276073
b1001 $
0o
05
0C!
1E!
0w
1F!
1G!
1M!
1Q!
0D!
0q
1(!
0%!
1|
0y
0I!
1L!
0}
0F
04
1t
1q
0,!
0)!
1}
1.!
1G
1F
13
14
0'!
1+!
0!!
1-!
0J
1K
0I
00
1/
01
0+!
1!!
0/!
0K
1I
0L
0/
11
0.
1/!
1L
1.
#277858
b110 #
0p
15
1P!
0G!
1K!
0q
0&!
0F
04
0!!
0I
01
1'!
1J
10
#279655
b1 $
0u
05
0P!
0|
1y
0M!
0Q!
0K!
0}
1~
0H!
0L!
0{
1&!
10!
0~
0H
02
1!!
0/!
1{
1I
0L
1H
11
0.
12
0'!
01!
0!!
0J
0M
0I
00
0-
01
#279746
b10 #
0"!
15
0E!
0y
0{
0H
02
#280000
b1111 !
b1111 "
b1101 !
b1101 "
b1100 !
b1100 "
0O
0N
1=
0P
0X
1b
05
0>!
0@!
14!
0=!
06!
1<!
05!
1;!
0:!
0Q
0c
0Y
1U
1h
1g
1d
0_
0>
0,
1n
0j
0f
0`
1W
0\
0d
0Z
1[
0h
1E
0D
0C
0B
1@
0A
1%
0&
0'
0(
1*
0)
0W
1j
1f
1`
0@
1D
1C
1B
0*
1&
1'
1(
0f
0j
0C
0D
0'
0&
#281583
b0 $
0x
15
0F!
0t
0G
03
#281750
b0 #
0r
05
#288913
b100 #
1"!
15
#289417
b1 $
1x
05
1E!
1y
1{
1H
12
#290000
b1101 !
b1101 "
1O
1P
15
1B!
1?!
1@!
16!
0<!
1Z
1Y
0U
1e
0[
1Q
0`
1W
0]
0Z
1>
0B
1@
1,
0(
1*
0W
1f
1^
1_
0@
1C
0*
1'
1\
1A
1)
#290592
b1100 #
1#!
05
1C!
1D!
0(!
1%!
1}
1,!
1)!
1'!
1!!
0-!
1J
1I
10
11
1+!
00!
1K
1/
1/!
1L
1.
11!
1M
1-
#292500
b1110 #
1r
15
1F!
1t
1G
13
#296412
b1010 #
0"!
05
0E!
0y
0{
0H
02
#298073
b11 $
1o
15
0C!
1E!
1w
0F!
1G!
0D!
1q
1(!
0%!
1y
1H!
1I!
1K!
1s
0}
1F
14
0t
0q
0,!
0)!
0.!
0G
0F
03
04
0'!
1{
0/!
0+!
1t
1-!
1.!
0J
1H
0L
0K
1G
00
12
0.
0/
13
1+!
1/!
1K
1L
1/
1.
#298249
b10 $
0x
05
0E!
1F!
1D!
0y
0z
1}
0t
0&!
0G
03
0!!
0I
01
1'!
1J
10
#300000
b1111 !
b1111 "
b1110 !
b1110 "
b10 #
b11 $
1x
0#!
0O
1N
0P
1X
15
1C!
1E!
0F!
0H!
0I!
1A!
0?!
0@!
1=!
06!
07!
1R
08!
15!
0<
0;!
0Q
0(!
1%!
1y
1z
10!
0V
1]
1Z
0Y
0i
0e
1l
0k
1h
1d
0>
0,
1t
0/!
0+!
0n
1j
0f
1`
0\
1,!
1)!
1*!
0^
0Z
1m
0l
1G
0L
0K
0E
1D
0C
1B
0A
13
0.
0/
0%
1&
0'
1(
0)
0'!
01!
1W
1\
1n
0-!
0.!
0J
0M
1@
1A
1E
00
0-
1*
1)
1%
0`
0\
0B
0A
0(
0)
#300296
b110 #
1"!
05
1J!
0E!
0y
1'!
1J
10
0{
0H
02
#310000
b1111 !
b1111 "
1O
1P
15
1>!
0A!
0B!
16!
1^
1V
0R
1S
1Q
1`
1e
1?
1>
1B
1+
1,
1(
0`
0W
0S
0B
0@
0?
0(
0*
0+
1f
1C
1'
#311055
b10 $
0x
05
1F!
0D!
0z
0}
0t
1&!
0G
03
1{
1!!
1H
1I
12
11
0'!
0J
00
#312358
b111 #
1p
15
1L!
0F!
1~
1z
0{
1t
0&!
0~
0H
1G
02
13
0!!
1{
1&!
0I
1H
01
12
1'!
1!!
1J
1I
10
11
0'!
0J
00
#315625
b1111 #
1#!
05
1H!
1I!
0C!
00!
1(!
0%!
1/!
1+!
0,!
0)!
0*!
1L
1K
1.
1/
11!
1'!
1-!
1.!
1M
1J
1-
10
#320000
b111 !
b111 "
b11 !
b11 "
b1 !
b1 "
b0 !
b0 "
0O
0N
0=
0T
0P
0X
0b
0a
15
0>!
03!
04!
0=!
06!
05!
0Q
0^
1l
0h
0e
0d
0>
0,
0n
0j
0f
1`
0m
1i
0E
0D
0C
1B
0%
0&
0'
1(
0`
1n
1j
0B
1E
1D
0(
1%
1&
0n
0j
0E
0D
0%
0&
#326073
b0 $
0o
05
0w
0s
0G!
1q
0H!
0I!
0J!
0K!
0L!
1F
14
0t
0q
10!
0G
0F
03
04
0/!
0+!
0'!
0!!
0{
0L
0K
0J
0I
0H
0.
0/
00
01
02
01!
0M
0-
#326962
b1101 #
b1001 #
0r
0"!
15
#327858
b1000 #
0p
05
#330000
b1 !
b1 "
1O
1P
15
1B!
1Q
1>
1,
#331125
b0 #
0#!
05
#340000
b11 !
b11 "
b10 !
b10 "
0O
1N
0P
1X
15
1>!
1A!
1?!
1=!
1R
1<
0Q
1^
0V
1Z
1;!
0>
0,
1n
1j
1f
0_
1E
1D
1C
1%
1&
1'
1`
1W
1e
1B
1@
1(
1*
0`
0i
0B
0(
0f
1m
0C
0'
0j
0D
0&
0n
0E
0%
#341461
b100 $
1v
05
1w
#344555
b101 $
1x
15
#347962
b10 #
1r
05
1K!
1F!
1!!
1t
1I
1G
11
13
#348073
b111 $
1o
15
1C!
1E!
0w
0F!
1G!
1O!
1D!
1q
0(!
1%!
1y
1J!
0K!
1s
1}
1F
14
0t
0q
1,!
1)!
1*!
0G
0F
03
04
1{
1t
0-!
0.!
1H
1G
12
13
